{
  "contacts": [
    {
      "firstName": "Ivana",
      "lastName": "Markovic",
      "img": "4.jpg",
      "age": "65",
      "birthDate": "2004-01-20",
      "id": 4
    },
    {
      "firstName": "Petar",
      "lastName": "Petrovic",
      "img": "5.jpg",
      "age": "16",
      "birthDate": "2004-01-20",
      "id": 5
    },
    {
      "firstName": "Blabla",
      "lastName": "fansdlfn",
      "img": "6.jpg",
      "age": 46,
      "birthDate": "12/04/2018",
      "id": 6
    },
    {
      "firstName": "Pavle",
      "lastName": "Ljubicic",
      "img": "7.jpg",
      "age": "25",
      "birthDate": "01.04.1994",
      "id": 7
    },
    {
      "firstName": "Miljan",
      "lastName": "Milicevic",
      "img": "8.jpg",
      "age": 52,
      "birthDate": "2004-01-20",
      "id": 9
    },
    {
      "firstName": "Pavle",
      "lastName": "Pavicevic",
      "img": "9.jpg",
      "age": 16,
      "birthDate": "2001-02-22",
      "id": 10
    },
    {
      "firstName": "Kovac",
      "lastName": "Kovacevic",
      "img": "10.jpg",
      "age": null,
      "birthDate": "1980-05-28T22:00:00.000Z",
      "id": 11
    },
    {
      "firstName": "Jaksa",
      "lastName": "Suzic",
      "age": 34,
      "birthDate": "1984-01-19T23:00:00.000Z",
      "img": "11.jpg",
      "id": 12
    },
    {
      "firstName": "Uros",
      "lastName": "Delic",
      "age": 10,
      "birthDate": "2008-04-15T22:00:00.000Z",
      "img": "5.jpg",
      "id": 13
    },
    {
      "firstName": "Jelena",
      "lastName": "Suzic",
      "age": 36,
      "birthDate": "1982-08-10T22:00:00.000Z",
      "img": "7.jpg",
      "id": 16
    }
  ]
}